<svg xmlns="http://www.w3.org/2000/svg" viewBox="0 0 30 30">
  <path d="M15 1.5C7.6 1.5 1.5 7.6 1.5 15S7.6 28.5 15 28.5 28.5 22.4 28.5 15 22.4 1.5 15 1.5z" fill="none" stroke="#fff"
        stroke-miterlimit="10"/>
  <path fill="#fff"
        d="M16.6 9.9c-1 0-1.8.2-2.5.7-.4.3-.8.7-1.1 1.2s-.5 1-.6 1.5h5.9l-.2 1.2h-5.8v1.1h5.6l-.2 1.2h-5.2c.2 1.3.8 2.3 1.8 2.8.7.4 1.4.6 2.2.6 1.1 0 1.9-.3 2.5-.9v1.8c-.7.3-1.5.5-2.4.5-2.6 0-4.4-1.1-5.3-3.3-.2-.4-.3-1-.5-1.6H9.5l.2-1.2h.9v-.8-.4H9.5l.2-1.2h1c.4-1.9 1.3-3.2 2.8-4.1.9-.5 2-.8 3.1-.8s2 .2 2.7.7l-.3 1.8c-.7-.6-1.5-.8-2.4-.8z"/>
</svg>
