
<svg width="46px" height="38px" viewBox="0 0 46 38" version="1.1" xmlns="http://www.w3.org/2000/svg" xmlns:xlink="http://www.w3.org/1999/xlink">
    <!-- Generator: Sketch 51.3 (57544) - http://www.bohemiancoding.com/sketch -->
    <desc>Created with Sketch.</desc>
    <defs></defs>
    <g id="Page-1" stroke="none" stroke-width="1" fill="none" fill-rule="evenodd" stroke-linejoin="round">
        <g id="Gestion-d'achat-d'énergie" transform="translate(-1209.000000, -1175.000000)" stroke="#FFFFFF" stroke-width="2">
            <g id="picto-consobatiment" transform="translate(1209.000000, 1176.000000)">
                <polyline id="Shape" points="5.87 14.82 5.87 35.99 40.13 35.99 40.13 14.82"></polyline>
                <path d="M19.57,35.99 L19.57,25.53 L26.43,25.53 L26.43,35.99 M0.61,19.31 L23,0.2 L45.39,19.31 M40.13,14.82 L40.13,3.88 L33.28,3.88 L33.28,8.97" id="Shape"></path>
            </g>
        </g>
    </g>
</svg>