<svg version="1.1" id="Calque_1" xmlns="http://www.w3.org/2000/svg" x="0" y="0" viewBox="0 0 29.5 29.6"
     xml:space="preserve"><style>.st0{fill:none;stroke:#fff;stroke-linecap:round;stroke-linejoin:round;stroke-miterlimit:10}</style>
  <path class="st0"
        d="M15 12.6c0 1-.8 1.8-1.8 1.8-.5 0-1-.2-1.3-.6v3.8H8.2c.4-.3.6-.8.6-1.3 0-1-.8-1.7-1.8-1.7s-1.8.8-1.8 1.8c0 .5.2 1 .6 1.3H2.1v-10H6c-.5.3-.7.8-.7 1.3 0 1 .8 1.8 1.8 1.8S8.9 10 8.9 9c0-.5-.3-1-.7-1.4H12v3.8c.3-.4.8-.6 1.3-.6 1 .1 1.7.9 1.7 1.8zM23.3 12.3c.3.3.6.8.6 1.3 0 1-.8 1.8-1.8 1.8s-1.8-.8-1.8-1.8c0-.5.2-1 .6-1.3h-3.7V8.5c.3.3.8.6 1.3.6 1 0 1.7-.8 1.7-1.8s-.8-1.8-1.8-1.8c-.5 0-1 .2-1.3.6V2.4H27v9.9h-3.7zM21.9 17.6v9.9H12v-3.8c.3.3.8.6 1.3.6 1 0 1.8-.8 1.8-1.8s-.8-1.8-1.8-1.8c-.5 0-1 .2-1.3.6v-3.7h3.8c-.3.3-.6.8-.6 1.3 0 1 .8 1.8 1.8 1.8s1.8-.8 1.8-1.8c0-.5-.2-1-.6-1.3h3.7z"/>
  <path class="st0"
        d="M15 22.6c0 1-.8 1.8-1.8 1.8-.5 0-1-.2-1.3-.6v3.8H8.3c.3-.3.5-.7.5-1.2 0-1-.8-1.8-1.8-1.8s-1.8.8-1.8 1.8c0 .5.2.9.5 1.2H2.1v-10h3.8c-.3-.3-.6-.8-.6-1.3 0-1 .8-1.7 1.7-1.7 1 0 1.8.8 1.8 1.8 0 .5-.2 1-.6 1.3H12v3.8c.3-.4.8-.6 1.3-.6 1-.1 1.7.7 1.7 1.7z"/></svg>
